1 threads
256 | err: 0.000000e+00 | 0.004006 sec 
512 | err: 0.000000e+00 | 0.021776 sec 
1024 | err: 0.000000e+00 | 0.156059 sec 
2048 | err: 0.000000e+00 | 1.031402 sec 
Complete. Calculating exponent...
256 - 512 : 2.442648
512 - 1024 : 2.841265
1024 - 2048 : 2.724444
2 threads
256 | err: 0.000000e+00 | 0.001847 sec 
512 | err: 0.000000e+00 | 0.012420 sec 
1024 | err: 0.000000e+00 | 0.086935 sec 
2048 | err: 0.000000e+00 | 0.555712 sec 
Complete. Calculating exponent...
256 - 512 : 2.749310
512 - 1024 : 2.807301
1024 - 2048 : 2.676321
3 threads
256 | err: 0.000000e+00 | 0.001610 sec 
512 | err: 0.000000e+00 | 0.009551 sec 
1024 | err: 0.000000e+00 | 0.067173 sec 
2048 | err: 0.000000e+00 | 0.419054 sec 
Complete. Calculating exponent...
256 - 512 : 2.568299
512 - 1024 : 2.814116
1024 - 2048 : 2.641183
4 threads
256 | err: 0.000000e+00 | 0.001569 sec 
512 | err: 0.000000e+00 | 0.008067 sec 
1024 | err: 0.000000e+00 | 0.055821 sec 
2048 | err: 0.000000e+00 | 0.334457 sec 
Complete. Calculating exponent...
256 - 512 : 2.362591
512 - 1024 : 2.790615
1024 - 2048 : 2.582945
****SPEEDUP***
   +1  +2  +3 ...
256:  2.168614 2.487401 2.553561
512:  1.753346 2.279928 2.699268
1024:  1.795113 2.323239 2.795716
2048:  1.856001 2.461262 3.083814
